{
	"type" : "FeatureCollection",
	"name" : "ZPK_O_Kont_TOitem_b",
	"features" : [
		{
			"type" : "Feature",
			"geometry" : {
				"type" : "Point",
				"coordinates" : [ 14.467579152000042, 50.12853690600008 ]
			},
			"properties" : {
				"OBJECTID" : 1,
				"STATIONID" : 1990,
				"TRASHTYPENAME" : "Papír",
				"CLEANINGFREQUENCYCODE" : 13,
				"CONTAINERTYPE" : "1100 normální HV",
				"CONTAINERS" : "2.0"
			}
		},
		{
			"type" : "Feature",
			"geometry" : {
				"type" : "Point",
				"coordinates" : [ 14.467579152000042, 50.12853690600008 ]
			},
			"properties" : {
				"OBJECTID" : 12058,
				"STATIONID" : 1990,
				"TRASHTYPENAME" : "Plast",
				"CLEANINGFREQUENCYCODE" : 13,
				"CONTAINERTYPE" : "1100 normální HV",
				"CONTAINERS" : "2.0"
			}
		},
		{
			"type" : "Feature",
			"geometry" : {
				"type" : "Point",
				"coordinates" : [ 14.478025441000057, 50.11492798200004 ]
			},
			"properties" : {
				"OBJECTID" : 2,
				"STATIONID" : 1994,
				"TRASHTYPENAME" : "Papír",
				"CLEANINGFREQUENCYCODE" : 13,
				"CONTAINERTYPE" : "1100 normální HV",
				"CONTAINERS" : "1.0"
			}
		},
		{
			"type" : "Feature",
			"geometry" : {
				"type" : "Point",
				"coordinates" : [ 14.465873329000033, 50.12205503100006 ]
			},
			"properties" : {
				"OBJECTID" : 3,
				"STATIONID" : 1995,
				"TRASHTYPENAME" : "Papír",
				"CLEANINGFREQUENCYCODE" : 13,
				"CONTAINERTYPE" : "1100 normální HV",
				"CONTAINERS" : "1.0"
			}
		},
		{
			"type" : "Feature",
			"geometry" : {
				"type" : "Point",
				"coordinates" : [ 14.47469783400004, 50.123135406000074 ]
			},
			"properties" : {
				"OBJECTID" : 4,
				"STATIONID" : 1996,
				"TRASHTYPENAME" : "Papír",
				"CLEANINGFREQUENCYCODE" : 13,
				"CONTAINERTYPE" : "1100 normální HV",
				"CONTAINERS" : "1.0"
			}
		},
		{
			"type" : "Feature",
			"geometry" : {
				"type" : "Point",
				"coordinates" : [ 14.449709991000077, 50.126499264000074 ]
			},
			"properties" : {
				"OBJECTID" : 5,
				"STATIONID" : 1997,
				"TRASHTYPENAME" : "Papír",
				"CLEANINGFREQUENCYCODE" : 13,
				"CONTAINERTYPE" : "1100 normální HV",
				"CONTAINERS" : "1.0"
			}
		},
		{
			"type" : "Feature",
			"geometry" : {
				"type" : "Point",
				"coordinates" : [ 14.440208685000073, 50.12835529800003 ]
			},
			"properties" : {
				"OBJECTID" : 6,
				"STATIONID" : 1999,
				"TRASHTYPENAME" : "Papír",
				"CLEANINGFREQUENCYCODE" : 13,
				"CONTAINERTYPE" : "1100 normální HV",
				"CONTAINERS" : "1.0"
			}
		},
		{
			"type" : "Feature",
			"geometry" : {
				"type" : "Point",
				"coordinates" : [ 14.440660268000045, 50.12679964500006 ]
			},
			"properties" : {
				"OBJECTID" : 7,
				"STATIONID" : 2000,
				"TRASHTYPENAME" : "Papír",
				"CLEANINGFREQUENCYCODE" : 13,
				"CONTAINERTYPE" : "1100 normální HV",
				"CONTAINERS" : "1.0"
			}
		},
		{
			"type" : "Feature",
			"geometry" : {
				"type" : "Point",
				"coordinates" : [ 14.466342208000071, 50.121955308000054 ]
			},
			"properties" : {
				"OBJECTID" : 8,
				"STATIONID" : 2001,
				"TRASHTYPENAME" : "Papír",
				"CLEANINGFREQUENCYCODE" : 13,
				"CONTAINERTYPE" : "1100 normální HV",
				"CONTAINERS" : "1.0"
			}
		},
		{
			"type" : "Feature",
			"geometry" : {
				"type" : "Point",
				"coordinates" : [ 14.46628791300003, 50.122539569000025 ]
			},
			"properties" : {
				"OBJECTID" : 9,
				"STATIONID" : 2002,
				"TRASHTYPENAME" : "Papír",
				"CLEANINGFREQUENCYCODE" : 13,
				"CONTAINERTYPE" : "1100 normální HV",
				"CONTAINERS" : "1.0"
			}
		},
		{
			"type" : "Feature",
			"geometry" : {
				"type" : "Point",
				"coordinates" : [ 14.470948970000052, 50.122424856000066 ]
			},
			"properties" : {
				"OBJECTID" : 10,
				"STATIONID" : 2003,
				"TRASHTYPENAME" : "Papír",
				"CLEANINGFREQUENCYCODE" : 13,
				"CONTAINERTYPE" : "1100 normální HV",
				"CONTAINERS" : "3.0"
			}
		},
		{
			"type" : "Feature",
			"geometry" : {
				"type" : "Point",
				"coordinates" : [ 14.484565857000064, 50.16506509100003 ]
			},
			"properties" : {
				"OBJECTID" : 11,
				"STATIONID" : 2015,
				"TRASHTYPENAME" : "Papír",
				"CLEANINGFREQUENCYCODE" : 13,
				"CONTAINERTYPE" : "1100 normální HV",
				"CONTAINERS" : "1.0"
			}
		},
		{
			"type" : "Feature",
			"geometry" : {
				"type" : "Point",
				"coordinates" : [ 14.480825913000047, 50.163033917000064 ]
			},
			"properties" : {
				"OBJECTID" : 12,
				"STATIONID" : 2016,
				"TRASHTYPENAME" : "Papír",
				"CLEANINGFREQUENCYCODE" : 13,
				"CONTAINERTYPE" : "1100 normální HV",
				"CONTAINERS" : "1.0"
			}
		},
		{
			"type" : "Feature",
			"geometry" : {
				"type" : "Point",
				"coordinates" : [ 14.484045381000044, 50.16922320900005 ]
			},
			"properties" : {
				"OBJECTID" : 13,
				"STATIONID" : 2017,
				"TRASHTYPENAME" : "Papír",
				"CLEANINGFREQUENCYCODE" : 13,
				"CONTAINERTYPE" : "1100 normální HV",
				"CONTAINERS" : "1.0"
			}
		},
		{
			"type" : "Feature",
			"geometry" : {
				"type" : "Point",
				"coordinates" : [ 14.482617061000042, 50.16643706700006 ]
			},
			"properties" : {
				"OBJECTID" : 14,
				"STATIONID" : 2018,
				"TRASHTYPENAME" : "Papír",
				"CLEANINGFREQUENCYCODE" : 13,
				"CONTAINERTYPE" : "1100 normální HV",
				"CONTAINERS" : "1.0"
			}
		},
		{
			"type" : "Feature",
			"geometry" : {
				"type" : "Point",
				"coordinates" : [ 14.482287384000074, 50.17081411400005 ]
			},
			"properties" : {
				"OBJECTID" : 15,
				"STATIONID" : 2019,
				"TRASHTYPENAME" : "Papír",
				"CLEANINGFREQUENCYCODE" : 13,
				"CONTAINERTYPE" : "1100 normální HV",
				"CONTAINERS" : "1.0"
			}
		},
		{
			"type" : "Feature",
			"geometry" : {
				"type" : "Point",
				"coordinates" : [ 14.48593155900005, 50.14630416600005 ]
			},
			"properties" : {
				"OBJECTID" : 16,
				"STATIONID" : 2021,
				"TRASHTYPENAME" : "Papír",
				"CLEANINGFREQUENCYCODE" : 13,
				"CONTAINERTYPE" : "1100 normální HV",
				"CONTAINERS" : "2.0"
			}
		},
		{
			"type" : "Feature",
			"geometry" : {
				"type" : "Point",
				"coordinates" : [ 14.477520840000068, 50.14287827800007 ]
			},
			"properties" : {
				"OBJECTID" : 17,
				"STATIONID" : 2023,
				"TRASHTYPENAME" : "Papír",
				"CLEANINGFREQUENCYCODE" : 13,
				"CONTAINERTYPE" : "1100 normální HV",
				"CONTAINERS" : "2.0"
			}
		},
		{
			"type" : "Feature",
			"geometry" : {
				"type" : "Point",
				"coordinates" : [ 14.477731617000074, 50.14645772400007 ]
			},
			"properties" : {
				"OBJECTID" : 18,
				"STATIONID" : 2024,
				"TRASHTYPENAME" : "Papír",
				"CLEANINGFREQUENCYCODE" : 13,
				"CONTAINERTYPE" : "1100 normální HV",
				"CONTAINERS" : "1.0"
			}
		},
		{
			"type" : "Feature",
			"geometry" : {
				"type" : "Point",
				"coordinates" : [ 14.49742636600007, 50.149969430000056 ]
			},
			"properties" : {
				"OBJECTID" : 19,
				"STATIONID" : 2026,
				"TRASHTYPENAME" : "Papír",
				"CLEANINGFREQUENCYCODE" : 13,
				"CONTAINERTYPE" : "1100 normální HV",
				"CONTAINERS" : "1.0"
			}
		},
		{
			"type" : "Feature",
			"geometry" : {
				"type" : "Point",
				"coordinates" : [ 14.475646815000061, 50.14473703200008 ]
			},
			"properties" : {
				"OBJECTID" : 20,
				"STATIONID" : 2028,
				"TRASHTYPENAME" : "Papír",
				"CLEANINGFREQUENCYCODE" : 13,
				"CONTAINERTYPE" : "1100 normální HV",
				"CONTAINERS" : "2.0"
			}
		},
		{
			"type" : "Feature",
			"geometry" : {
				"type" : "Point",
				"coordinates" : [ 14.479393342000037, 50.14397105200004 ]
			},
			"properties" : {
				"OBJECTID" : 21,
				"STATIONID" : 2034,
				"TRASHTYPENAME" : "Papír",
				"CLEANINGFREQUENCYCODE" : 13,
				"CONTAINERTYPE" : "1100 normální HV",
				"CONTAINERS" : "1.0"
			}
		},
		{
			"type" : "Feature",
			"geometry" : {
				"type" : "Point",
				"coordinates" : [ 14.454148141000076, 50.14293483900008 ]
			},
			"properties" : {
				"OBJECTID" : 22,
				"STATIONID" : 2037,
				"TRASHTYPENAME" : "Papír",
				"CLEANINGFREQUENCYCODE" : 13,
				"CONTAINERTYPE" : "1100 normální HV",
				"CONTAINERS" : "1.0"
			}
		},
		{
			"type" : "Feature",
			"geometry" : {
				"type" : "Point",
				"coordinates" : [ 14.45031718100006, 50.14403638600004 ]
			},
			"properties" : {
				"OBJECTID" : 23,
				"STATIONID" : 2039,
				"TRASHTYPENAME" : "Papír",
				"CLEANINGFREQUENCYCODE" : 13,
				"CONTAINERTYPE" : "1100 normální HV",
				"CONTAINERS" : "1.0"
			}
		},
		{
			"type" : "Feature",
			"geometry" : {
				"type" : "Point",
				"coordinates" : [ 14.442446737000068, 50.14503967200005 ]
			},
			"properties" : {
				"OBJECTID" : 24,
				"STATIONID" : 2040,
				"TRASHTYPENAME" : "Papír",
				"CLEANINGFREQUENCYCODE" : 13,
				"CONTAINERTYPE" : "1100 normální HV",
				"CONTAINERS" : "1.0"
			}
		},
		{
			"type" : "Feature",
			"geometry" : {
				"type" : "Point",
				"coordinates" : [ 14.442425878000051, 50.14778032600003 ]
			},
			"properties" : {
				"OBJECTID" : 25,
				"STATIONID" : 2041,
				"TRASHTYPENAME" : "Papír",
				"CLEANINGFREQUENCYCODE" : 13,
				"CONTAINERTYPE" : "1100 normální HV",
				"CONTAINERS" : "1.0"
			}
		},
		{
			"type" : "Feature",
			"geometry" : {
				"type" : "Point",
				"coordinates" : [ 14.449769906000029, 50.147019456000066 ]
			},
			"properties" : {
				"OBJECTID" : 26,
				"STATIONID" : 2042,
				"TRASHTYPENAME" : "Papír",
				"CLEANINGFREQUENCYCODE" : 13,
				"CONTAINERTYPE" : "1100 normální HV",
				"CONTAINERS" : "2.0"
			}
		},
		{
			"type" : "Feature",
			"geometry" : {
				"type" : "Point",
				"coordinates" : [ 14.449364824000043, 50.14984213900004 ]
			},
			"properties" : {
				"OBJECTID" : 27,
				"STATIONID" : 2043,
				"TRASHTYPENAME" : "Papír",
				"CLEANINGFREQUENCYCODE" : 13,
				"CONTAINERTYPE" : "1100 normální HV",
				"CONTAINERS" : "1.0"
			}
		},
		{
			"type" : "Feature",
			"geometry" : {
				"type" : "Point",
				"coordinates" : [ 14.44489242700007, 50.14961257600004 ]
			},
			"properties" : {
				"OBJECTID" : 28,
				"STATIONID" : 2044,
				"TRASHTYPENAME" : "Papír",
				"CLEANINGFREQUENCYCODE" : 13,
				"CONTAINERTYPE" : "1100 normální HV",
				"CONTAINERS" : "1.0"
			}
		},
		{
			"type" : "Feature",
			"geometry" : {
				"type" : "Point",
				"coordinates" : [ 14.45176723700007, 50.140585618000046 ]
			},
			"properties" : {
				"OBJECTID" : 29,
				"STATIONID" : 2045,
				"TRASHTYPENAME" : "Papír",
				"CLEANINGFREQUENCYCODE" : 13,
				"CONTAINERTYPE" : "1100 normální HV",
				"CONTAINERS" : "1.0"
			}
		},
		{
			"type" : "Feature",
			"geometry" : {
				"type" : "Point",
				"coordinates" : [ 14.454768459000036, 50.13915012100006 ]
			},
			"properties" : {
				"OBJECTID" : 30,
				"STATIONID" : 2046,
				"TRASHTYPENAME" : "Papír",
				"CLEANINGFREQUENCYCODE" : 13,
				"CONTAINERTYPE" : "1100 normální HV",
				"CONTAINERS" : "1.0"
			}
		},
		{
			"type" : "Feature",
			"geometry" : {
				"type" : "Point",
				"coordinates" : [ 14.447596593000071, 50.14538557700007 ]
			},
			"properties" : {
				"OBJECTID" : 31,
				"STATIONID" : 2047,
				"TRASHTYPENAME" : "Papír",
				"CLEANINGFREQUENCYCODE" : 13,
				"CONTAINERTYPE" : "1100 normální HV",
				"CONTAINERS" : "1.0"
			}
		},
		{
			"type" : "Feature",
			"geometry" : {
				"type" : "Point",
				"coordinates" : [ 14.440279567000061, 50.15006313100008 ]
			},
			"properties" : {
				"OBJECTID" : 32,
				"STATIONID" : 2048,
				"TRASHTYPENAME" : "Papír",
				"CLEANINGFREQUENCYCODE" : 13,
				"CONTAINERTYPE" : "1100 normální HV",
				"CONTAINERS" : "1.0"
			}
		},
		{
			"type" : "Feature",
			"geometry" : {
				"type" : "Point",
				"coordinates" : [ 14.439363178000065, 50.14404580100006 ]
			},
			"properties" : {
				"OBJECTID" : 33,
				"STATIONID" : 2049,
				"TRASHTYPENAME" : "Papír",
				"CLEANINGFREQUENCYCODE" : 13,
				"CONTAINERTYPE" : "1100 normální HV",
				"CONTAINERS" : "1.0"
			}
		},
		{
			"type" : "Feature",
			"geometry" : {
				"type" : "Point",
				"coordinates" : [ 14.438631944000065, 50.146923679000054 ]
			},
			"properties" : {
				"OBJECTID" : 34,
				"STATIONID" : 2050,
				"TRASHTYPENAME" : "Papír",
				"CLEANINGFREQUENCYCODE" : 13,
				"CONTAINERTYPE" : "1100 normální HV",
				"CONTAINERS" : "1.0"
			}
		},
		{
			"type" : "Feature",
			"geometry" : {
				"type" : "Point",
				"coordinates" : [ 14.449478140000053, 50.150443636000034 ]
			},
			"properties" : {
				"OBJECTID" : 35,
				"STATIONID" : 2051,
				"TRASHTYPENAME" : "Papír",
				"CLEANINGFREQUENCYCODE" : 13,
				"CONTAINERTYPE" : "1100 normální HV",
				"CONTAINERS" : "1.0"
			}
		},
		{
			"type" : "Feature",
			"geometry" : {
				"type" : "Point",
				"coordinates" : [ 14.454921080000076, 50.13668942900006 ]
			},
			"properties" : {
				"OBJECTID" : 36,
				"STATIONID" : 2052,
				"TRASHTYPENAME" : "Papír",
				"CLEANINGFREQUENCYCODE" : 13,
				"CONTAINERTYPE" : "1100 normální HV",
				"CONTAINERS" : "1.0"
			}
		},
		{
			"type" : "Feature",
			"geometry" : {
				"type" : "Point",
				"coordinates" : [ 14.428975986000069, 50.09748903500008 ]
			},
			"properties" : {
				"OBJECTID" : 37,
				"STATIONID" : 2069,
				"TRASHTYPENAME" : "Papír",
				"CLEANINGFREQUENCYCODE" : 13,
				"CONTAINERTYPE" : "1100 normální HV",
				"CONTAINERS" : "1.0"
			}
		},
		{
			"type" : "Feature",
			"geometry" : {
				"type" : "Point",
				"coordinates" : [ 14.455837477000046, 50.10365934200007 ]
			},
			"properties" : {
				"OBJECTID" : 38,
				"STATIONID" : 2084,
				"TRASHTYPENAME" : "Papír",
				"CLEANINGFREQUENCYCODE" : 13,
				"CONTAINERTYPE" : "1100 normální HV",
				"CONTAINERS" : "1.0"
			}
		},
		{
			"type" : "Feature",
			"geometry" : {
				"type" : "Point",
				"coordinates" : [ 14.453276860000074, 50.106218314000046 ]
			},
			"properties" : {
				"OBJECTID" : 39,
				"STATIONID" : 2087,
				"TRASHTYPENAME" : "Papír",
				"CLEANINGFREQUENCYCODE" : 13,
				"CONTAINERTYPE" : "1100 normální HV",
				"CONTAINERS" : "1.0"
			}
		},
		{
			"type" : "Feature",
			"geometry" : {
				"type" : "Point",
				"coordinates" : [ 14.419693473000052, 50.10036833200007 ]
			},
			"properties" : {
				"OBJECTID" : 40,
				"STATIONID" : 2111,
				"TRASHTYPENAME" : "Papír",
				"CLEANINGFREQUENCYCODE" : 13,
				"CONTAINERTYPE" : "1100 normální HV",
				"CONTAINERS" : "1.0"
			}
		},
		{
			"type" : "Feature",
			"geometry" : {
				"type" : "Point",
				"coordinates" : [ 14.451760854000042, 50.11080168400008 ]
			},
			"properties" : {
				"OBJECTID" : 41,
				"STATIONID" : 2116,
				"TRASHTYPENAME" : "Papír",
				"CLEANINGFREQUENCYCODE" : 13,
				"CONTAINERTYPE" : "1100 normální HV",
				"CONTAINERS" : "1.0"
			}
		},
		{
			"type" : "Feature",
			"geometry" : {
				"type" : "Point",
				"coordinates" : [ 14.423366070000043, 50.11619763200008 ]
			},
			"properties" : {
				"OBJECTID" : 42,
				"STATIONID" : 2130,
				"TRASHTYPENAME" : "Papír",
				"CLEANINGFREQUENCYCODE" : 13,
				"CONTAINERTYPE" : "1100 normální HV",
				"CONTAINERS" : "1.0"
			}
		},
		{
			"type" : "Feature",
			"geometry" : {
				"type" : "Point",
				"coordinates" : [ 14.41089222000005, 50.12072310100007 ]
			},
			"properties" : {
				"OBJECTID" : 43,
				"STATIONID" : 2132,
				"TRASHTYPENAME" : "Papír",
				"CLEANINGFREQUENCYCODE" : 13,
				"CONTAINERTYPE" : "1100 normální HV",
				"CONTAINERS" : "1.0"
			}
		},
		{
			"type" : "Feature",
			"geometry" : {
				"type" : "Point",
				"coordinates" : [ 14.405970449000051, 50.10444222000007 ]
			},
			"properties" : {
				"OBJECTID" : 44,
				"STATIONID" : 2134,
				"TRASHTYPENAME" : "Papír",
				"CLEANINGFREQUENCYCODE" : 13,
				"CONTAINERTYPE" : "1100 normální HV",
				"CONTAINERS" : "1.0"
			}
		},
		{
			"type" : "Feature",
			"geometry" : {
				"type" : "Point",
				"coordinates" : [ 14.353336566000053, 50.106722328000046 ]
			},
			"properties" : {
				"OBJECTID" : 45,
				"STATIONID" : 2161,
				"TRASHTYPENAME" : "Papír",
				"CLEANINGFREQUENCYCODE" : 13,
				"CONTAINERTYPE" : "1100 normální HV",
				"CONTAINERS" : "1.0"
			}
		},
		{
			"type" : "Feature",
			"geometry" : {
				"type" : "Point",
				"coordinates" : [ 14.352967516000035, 50.097900725000045 ]
			},
			"properties" : {
				"OBJECTID" : 46,
				"STATIONID" : 2173,
				"TRASHTYPENAME" : "Papír",
				"CLEANINGFREQUENCYCODE" : 13,
				"CONTAINERTYPE" : "1100 normální HV",
				"CONTAINERS" : "1.0"
			}
		},
		{
			"type" : "Feature",
			"geometry" : {
				"type" : "Point",
				"coordinates" : [ 14.372013373000073, 50.09780363100003 ]
			},
			"properties" : {
				"OBJECTID" : 47,
				"STATIONID" : 2178,
				"TRASHTYPENAME" : "Papír",
				"CLEANINGFREQUENCYCODE" : 13,
				"CONTAINERTYPE" : "1100 normální HV",
				"CONTAINERS" : "1.0"
			}
		},
		{
			"type" : "Feature",
			"geometry" : {
				"type" : "Point",
				"coordinates" : [ 14.35742431400007, 50.09576477200005 ]
			},
			"properties" : {
				"OBJECTID" : 48,
				"STATIONID" : 2183,
				"TRASHTYPENAME" : "Papír",
				"CLEANINGFREQUENCYCODE" : 13,
				"CONTAINERTYPE" : "1100 normální HV",
				"CONTAINERS" : "1.0"
			}
		},
		{
			"type" : "Feature",
			"geometry" : {
				"type" : "Point",
				"coordinates" : [ 14.349325952000072, 50.09409718900008 ]
			},
			"properties" : {
				"OBJECTID" : 49,
				"STATIONID" : 2184,
				"TRASHTYPENAME" : "Papír",
				"CLEANINGFREQUENCYCODE" : 13,
				"CONTAINERTYPE" : "1100 normální HV",
				"CONTAINERS" : "1.0"
			}
		},
		{
			"type" : "Feature",
			"geometry" : {
				"type" : "Point",
				"coordinates" : [ 14.38538763500003, 50.09398240100006 ]
			},
			"properties" : {
				"OBJECTID" : 50,
				"STATIONID" : 2185,
				"TRASHTYPENAME" : "Papír",
				"CLEANINGFREQUENCYCODE" : 13,
				"CONTAINERTYPE" : "1100 normální HV",
				"CONTAINERS" : "1.0"
			}
		},
		{
			"type" : "Feature",
			"geometry" : {
				"type" : "Point",
				"coordinates" : [ 14.376018277000071, 50.093636092000054 ]
			},
			"properties" : {
				"OBJECTID" : 51,
				"STATIONID" : 2189,
				"TRASHTYPENAME" : "Papír",
				"CLEANINGFREQUENCYCODE" : 13,
				"CONTAINERTYPE" : "1100 normální HV",
				"CONTAINERS" : "1.0"
			}
		},
		{
			"type" : "Feature",
			"geometry" : {
				"type" : "Point",
				"coordinates" : [ 14.360916494000037, 50.097106662000044 ]
			},
			"properties" : {
				"OBJECTID" : 52,
				"STATIONID" : 2201,
				"TRASHTYPENAME" : "Papír",
				"CLEANINGFREQUENCYCODE" : 13,
				"CONTAINERTYPE" : "1100 normální HV",
				"CONTAINERS" : "1.0"
			}
		},
		{
			"type" : "Feature",
			"geometry" : {
				"type" : "Point",
				"coordinates" : [ 14.338751745000025, 50.08514620400007 ]
			},
			"properties" : {
				"OBJECTID" : 53,
				"STATIONID" : 2210,
				"TRASHTYPENAME" : "Papír",
				"CLEANINGFREQUENCYCODE" : 13,
				"CONTAINERTYPE" : "1100 normální HV",
				"CONTAINERS" : "1.0"
			}
		},
		{
			"type" : "Feature",
			"geometry" : {
				"type" : "Point",
				"coordinates" : [ 14.371340431000021, 50.08603105100008 ]
			},
			"properties" : {
				"OBJECTID" : 54,
				"STATIONID" : 2214,
				"TRASHTYPENAME" : "Papír",
				"CLEANINGFREQUENCYCODE" : 13,
				"CONTAINERTYPE" : "1100 normální HV",
				"CONTAINERS" : "2.0"
			}
		},
		{
			"type" : "Feature",
			"geometry" : {
				"type" : "Point",
				"coordinates" : [ 14.301951576000022, 50.08983561100007 ]
			},
			"properties" : {
				"OBJECTID" : 55,
				"STATIONID" : 2239,
				"TRASHTYPENAME" : "Papír",
				"CLEANINGFREQUENCYCODE" : 13,
				"CONTAINERTYPE" : "1100 normální HV",
				"CONTAINERS" : "1.0"
			}
		},
		{
			"type" : "Feature",
			"geometry" : {
				"type" : "Point",
				"coordinates" : [ 14.30716256900007, 50.09289500700004 ]
			},
			"properties" : {
				"OBJECTID" : 56,
				"STATIONID" : 2240,
				"TRASHTYPENAME" : "Papír",
				"CLEANINGFREQUENCYCODE" : 13,
				"CONTAINERTYPE" : "1100 normální HV",
				"CONTAINERS" : "1.0"
			}
		},
		{
			"type" : "Feature",
			"geometry" : {
				"type" : "Point",
				"coordinates" : [ 14.390619857000047, 50.098473633000026 ]
			},
			"properties" : {
				"OBJECTID" : 57,
				"STATIONID" : 2246,
				"TRASHTYPENAME" : "Papír",
				"CLEANINGFREQUENCYCODE" : 13,
				"CONTAINERTYPE" : "1100 normální HV",
				"CONTAINERS" : "1.0"
			}
		},
		{
			"type" : "Feature",
			"geometry" : {
				"type" : "Point",
				"coordinates" : [ 14.344127446000073, 50.09729057900006 ]
			},
			"properties" : {
				"OBJECTID" : 58,
				"STATIONID" : 2251,
				"TRASHTYPENAME" : "Papír",
				"CLEANINGFREQUENCYCODE" : 13,
				"CONTAINERTYPE" : "1100 normální HV",
				"CONTAINERS" : "1.0"
			}
		},
		{
			"type" : "Feature",
			"geometry" : {
				"type" : "Point",
				"coordinates" : [ 14.364487073000078, 50.085680799000045 ]
			},
			"properties" : {
				"OBJECTID" : 59,
				"STATIONID" : 2270,
				"TRASHTYPENAME" : "Papír",
				"CLEANINGFREQUENCYCODE" : 13,
				"CONTAINERTYPE" : "1100 normální HV",
				"CONTAINERS" : "1.0"
			}
		},
		{
			"type" : "Feature",
			"geometry" : {
				"type" : "Point",
				"coordinates" : [ 14.345478210000067, 50.09246012300008 ]
			},
			"properties" : {
				"OBJECTID" : 60,
				"STATIONID" : 2272,
				"TRASHTYPENAME" : "Papír",
				"CLEANINGFREQUENCYCODE" : 13,
				"CONTAINERTYPE" : "1100 normální HV",
				"CONTAINERS" : "1.0"
			}
		},
		{
			"type" : "Feature",
			"geometry" : {
				"type" : "Point",
				"coordinates" : [ 14.333577280000043, 50.087593319000064 ]
			},
			"properties" : {
				"OBJECTID" : 61,
				"STATIONID" : 2274,
				"TRASHTYPENAME" : "Papír",
				"CLEANINGFREQUENCYCODE" : 13,
				"CONTAINERTYPE" : "1100 normální HV",
				"CONTAINERS" : "1.0"
			}
		},
		{
			"type" : "Feature",
			"geometry" : {
				"type" : "Point",
				"coordinates" : [ 14.311229666000031, 50.09272937600008 ]
			},
			"properties" : {
				"OBJECTID" : 62,
				"STATIONID" : 2286,
				"TRASHTYPENAME" : "Papír",
				"CLEANINGFREQUENCYCODE" : 13,
				"CONTAINERTYPE" : "1100 normální HV",
				"CONTAINERS" : "1.0"
			}
		},
		{
			"type" : "Feature",
			"geometry" : {
				"type" : "Point",
				"coordinates" : [ 14.403365842000028, 50.10463257300006 ]
			},
			"properties" : {
				"OBJECTID" : 63,
				"STATIONID" : 2290,
				"TRASHTYPENAME" : "Papír",
				"CLEANINGFREQUENCYCODE" : 13,
				"CONTAINERTYPE" : "1100 normální HV",
				"CONTAINERS" : "1.0"
			}
		},
		{
			"type" : "Feature",
			"geometry" : {
				"type" : "Point",
				"coordinates" : [ 14.39998881400004, 50.103778169000066 ]
			},
			"properties" : {
				"OBJECTID" : 64,
				"STATIONID" : 2293,
				"TRASHTYPENAME" : "Papír",
				"CLEANINGFREQUENCYCODE" : 13,
				"CONTAINERTYPE" : "1100 normální HV",
				"CONTAINERS" : "1.0"
			}
		}
	]
}